NAND/MBR-A13/sector-0-1.vcd
$comment 
  OLS Java Client
$end
$date 
  2012-nov-19 16:35:55
$end
$version 
  VCD exporter v1.1
$end
$timescale 
  1 us
$end
$scope 
  module logic
$end
$var wire 1 ! Channel-0 $end
$var wire 1 " Channel-1 $end
$var wire 1 # Channel-2 $end
$var wire 1 $ Channel-3 $end
$var wire 1 % Channel-4 $end
$var wire 1 & Channel-5 $end
$var wire 1 ' Channel-6 $end
$var wire 1 ( Channel-7 $end
$var wire 1 ) Channel-8 $end
$var wire 1 * Channel-9 $end
$var wire 1 + Channel-10 $end
$var wire 1 , Channel-11 $end
$var wire 1 - Channel-12 $end
$var wire 1 . Channel-13 $end
$var wire 1 / Channel-14 $end
$var wire 1 0 Channel-15 $end
$upscope $end
$enddefinitions $end
$dumpvars
x!
x"
x#
x$
x%
x&
x'
x(
x)
x*
x+
x,
x-
x.
x/
x0
$end
#0
1!
0"
0#
1$
1%
1&
1'
0(
0)
0*
0+
0,
1-
1.
1/
00
#2147514
0$
#2147566
1#
#2147580
0-
0.
0/
#2147582
0!
#2147594
1!
#2147610
1"
0#
#2147626
0!
#2147636
1!
#2147646
0!
#2147658
1!
#2147668
0!
#2147678
1!
#2147686
1)
1*
1-
1.
1/
#2147690
0!
#2147700
1!
#2147708
0-
0.
0/
#2147710
0!
#2147722
1!
#2147738
0"
#2147780
1#
#2147794
0)
0*
1,
1-
#2147796
0!
#2147806
1!
0&
#2147822
0#
#2147886
1&
#2148308
0%
1(
1)
1*
1+
0-
1.
#2148314
1%
#2148318
0%
0)
0+
1-
0.
#2148324
1%
#2148330
0%
1)
0*
0-
1/
#2148334
1%
#2148340
0%
0)
1*
1.
0/
#2148346
1%
#2148350
0%
1)
1+
#2148356
1%
#2148362
0%
0)
0*
#2148366
1%
#2148372
0%
0(
1-
0.
#2148378
1%
#2148382
0%
1)
#2148388
1%
#2148394
0%
1(
0)
0+
0,
1.
1/
#2148398
1%
#2148404
0%
0(
1*
1+
1,
#2148410
1%
#2148414
0%
1(
1)
0*
0,
0-
0/
#2148420
1%
#2148426
0%
0)
1,
1/
#2148430
1%
#2148436
0%
0(
1)
0,
1-
0.
#2148442
1%
#2148446
0%
1*
0-
#2148452
1%
#2148458
0%
0)
0*
1-
#2148462
1%
#2148468
0%
0+
0-
#2148474
1%
#2148478
0%
1)
1*
1+
1-
#2148484
1%
#2148490
0%
0)
0+
1,
1.
#2148494
1%
#2148500
0%
1)
0/
#2148506
1%
#2148510
0%
1(
0,
0-
0.
#2148516
1%
#2148522
0%
0(
0)
0*
1-
1.
#2148526
1%
#2148532
0%
1)
0-
0.
#2148538
1%
#2148542
0%
0)
1+
1-
1/
#2148548
1%
#2148554
0%
1(
0+
0-
0/
#2148558
1%
#2148564
0%
0(
1)
1*
1+
1,
1-
1/
#2148570
1%
#2148574
0%
0)
0*
0,
0-
#2148580
1%
#2148586
0%
0+
1,
1-
1.
0/
#2148590
1%
#2148596
0%
0,
#2148602
1%
#2148606
0%
1*
0.
#2148612
1%
#2148618
0%
0*
1+
#2148622
1%
#2148628
0%
1(
1)
1,
0-
#2148634
1%
#2148638
0%
0(
1*
1.
#2148644
1%
#2148650
0%
1(
0*
0,
0.
1/
#2148654
1%
#2148660
0%
0(
0)
1,
1-
1.
#2148666
1%
#2148670
0%
1(
1)
1*
0+
0,
0/
#2148676
1%
#2148682
0%
0(
0*
#2148686
1%
#2148692
0%
1*
1+
1/
#2148698
1%
#2148702
0%
0)
0*
0+
#2148708
1%
#2148714
0%
1*
1+
#2148718
1%
#2148724
0%
1(
0+
1,
0/
#2148730
1%
#2148734
0%
0(
0*
1/
#2148740
1%
#2148746
0%
0-
0.
0/
#2148750
1%
#2148756
0%
1*
0,
1.
#2148762
1%
#2148766
0%
1+
0.
#2148772
1%
#2148778
0%
1(
1)
0*
0+
1,
1-
#2148782
1%
#2148788
0%
0)
1*
0,
0-
1.
#2148794
1%
#2148798
0%
1,
1/
#2148804
1%
#2148810
0%
1)
0*
1-
#2148814
1%
#2148820
0%
0)
1*
1+
0/
#2148826
1%
#2148830
0%
0(
1)
0*
0,
#2148836
1%
#2148842
0%
1(
1*
0+
0.
1/
#2148846
1%
#2148852
0%
1,
1.
0/
#2148858
1%
#2148862
0%
0(
0*
1+
#2148868
1%
#2148874
0%
1*
0,
1/
#2148878
1%
#2148884
0%
1(
0.
#2148890
1%
#2148894
0%
0(
0)
0+
0-
#2148900
1%
#2148906
0%
1(
0*
1,
1-
0/
#2148910
1%
#2148916
0%
0(
1)
1+
#2148922
1%
#2148926
0%
1(
1*
#2148932
1%
#2148938
0%
0(
0+
1.
#2148942
1%
#2148948
0%
0)
0*
0-
0.
1/
#2148954
1%
#2148958
0%
1)
1*
0,
1-
0/
#2148964
1%
#2148970
0%
0)
1+
1.
1/
#2148974
1%
#2148980
0%
1)
0*
1,
0-
0.
0/
#2148986
1%
#2148990
0%
1(
0)
1*
0,
1.
1/
#2148996
1%
#2149002
0%
1)
0*
#2149006
1%
#2149012
0%
0)
1*
0+
1,
0.
0/
#2149018
1%
#2149022
0%
1)
1/
#2149028
1%
#2149034
0%
1+
0,
1.
0/
#2149038
1%
#2149044
0%
0(
1-
0.
#2149050
1%
#2149054
0%
0)
0+
1,
1/
#2149060
1%
#2149066
0%
1+
0-
0/
#2149070
1%
#2149076
0%
1(
1)
0+
1-
1.
#2149082
1%
#2149086
0%
0)
0*
1+
0,
0-
#2149092
1%
#2149098
0%
0(
1)
1*
0+
1-
1/
#2149102
1%
#2149108
0%
1,
0.
#2149114
1%
#2149118
0%
0*
1+
0,
0-
1.
#2149124
1%
#2149130
0%
1*
0+
1,
1-
#2149134
1%
#2149140
0%
1(
0-
#2149146
1%
#2149150
0%
0(
0,
0.
0/
#2149156
1%
#2149162
0%
1+
1,
1.
1/
#2149166
1%
#2149172
0%
0*
0+
0,
0.
#2149178
1%
#2149182
0%
0)
1+
1,
1.
#2149188
1%
#2149194
0%
1(
0+
0,
1-
0/
#2149198
1%
#2149204
0%
0(
1)
1+
1,
0-
0.
1/
#2149210
1%
#2149214
0%
0)
0,
1-
#2149220
1%
#2149226
0%
1(
1)
1.
0/
#2149230
1%
#2149236
0%
0(
1*
1,
0.
#2149242
1%
#2149246
0%
1(
0,
1/
#2149252
1%
#2149258
0%
0(
0)
0*
1,
0-
1.
#2149262
1%
#2149268
0%
1*
1-
0/
#2149274
1%
#2149278
0%
0.
#2149284
1%
#2149290
0%
1(
0*
0+
0,
#2149294
1%
#2149300
0%
1,
0-
1.
1/
#2149306
1%
#2149310
0%
0(
1+
#2149316
1%
#2149322
0%
1*
0/
#2149326
1%
#2149332
0%
1)
0*
#2149338
1%
#2149342
0%
1(
0)
0,
1-
0.
1/
#2149348
1%
#2149354
0%
1)
1,
1.
#2149358
1%
#2149364
0%
0(
0+
0.
0/
#2149370
1%
#2149374
0%
1(
1*
0,
0-
1/
#2149380
1%
#2149386
0%
0(
0)
1+
1,
0/
#2149390
1%
#2149396
0%
1)
0*
0+
0,
1.
1/
#2149402
1%
#2149406
0%
0)
1*
1,
1-
0.
#2149412
1%
#2149418
0%
1+
0,
0/
#2149422
1%
#2149428
0%
0*
0+
0-
1.
#2149434
1%
#2149438
0%
1(
1*
1+
1,
0.
#2149444
1%
#2149450
0%
0(
0*
0+
1-
1.
1/
#2149454
1%
#2149460
0%
1(
1+
0,
0-
0.
0/
#2149466
1%
#2149470
0%
0(
1*
0+
1/
#2149476
1%
#2149482
0%
1)
0/
#2149486
1%
#2149492
0%
1(
0*
1-
1.
1/
#2149498
1%
#2149502
0%
1*
0.
0/
#2149508
1%
#2149514
0%
1/
#2149518
1%
#2149524
0%
0-
#2149530
1%
#2149534
0%
0(
1,
#2149540
1%
#2149546
0%
0)
0,
1.
#2149550
1%
#2149556
0%
1)
1+
1-
0/
#2149562
1%
#2149566
0%
1(
0*
0+
1,
0-
1/
#2149572
1%
#2149578
0%
0(
0)
1*
1+
0,
1-
0/
#2149582
1%
#2149588
0%
1(
1,
0-
#2149594
1%
#2149598
0%
0,
1-
1/
#2149604
1%
#2149610
0%
0*
1,
#2149614
1%
#2149620
0%
1*
0,
0-
0.
#2149626
1%
#2149630
0%
0(
1)
0*
0+
#2149636
1%
#2149642
0%
1(
0)
1*
1-
1.
#2149646
1%
#2149652
0%
0*
0.
#2149658
1%
#2149662
0%
1)
1+
0-
#2149668
1%
#2149674
0%
0(
0)
1,
1-
0/
#2149678
1%
#2149684
0%
1(
1)
1*
0+
0,
1.
#2149690
1%
#2149694
0%
1,
#2149696
0(
0*
0-
#2149700
1%
#2149706
0%
1+
0,
1-
0.
1/
#2149710
1%
#2149716
0%
1(
0)
1*
1,
#2149722
1%
#2149726
0%
#2149728
1)
#2149732
1%
#2149738
0%
0)
0*
0+
0/
#2149742
1%
#2149748
0%
0(
1/
#2149754
1%
#2149758
0%
#2149760
1*
0-
0/
#2149764
1%
#2149770
0%
1-
1.
#2149776
1%
#2149780
0%
1(
1)
1+
0,
0-
0.
#2149786
1%
#2149792
0%
0+
1-
1.
#2149796
1%
#2149802
0%
0(
0)
0-
#2149808
1%
#2149812
0%
1)
0*
1+
1-
0.
#2149818
1%
#2149824
0%
1(
0+
1,
1/
#2149828
1%
#2149834
0%
1*
1+
0-
1.
0/
#2149840
1%
#2149844
0%
0)
0+
1-
0.
#2149850
1%
#2149856
0%
0(
0*
1+
1.
1/
#2149860
1%
#2149866
0%
1(
1)
1*
0+
0-
0.
0/
#2149872
1%
#2149876
0%
0(
0*
0,
#2149882
1%
#2149888
0%
1*
1+
1/
#2149892
1%
#2149898
0%
1(
0)
0*
0+
#2149904
1%
#2149908
0%
0(
1*
1-
#2149914
1%
#2149920
0%
0*
1.
0/
#2149924
1%
#2149930
0%
1(
1)
1+
1,
#2149936
1%
#2149940
0%
0(
0)
0+
1/
#2149946
1%
#2149952
0%
1(
1)
0,
0.
0/
#2149956
1%
#2149962
0%
0(
1*
1+
1.
#2149968
1%
#2149972
0%
1(
0)
0*
1,
0-
0.
1/
#2149978
1%
#2149984
0%
0(
1*
0,
1-
1.
#2149988
1%
#2149994
0%
1)
0*
0/
#2150000
1%
#2150004
0%
1(
0)
1*
0-
1/
#2150010
1%
#2150016
0%
1)
1-
#2150020
1%
#2150026
0%
0)
0+
1,
0-
0.
0/
#2150032
1%
#2150036
0%
1+
0,
1/
#2150042
1%
#2150048
0%
1)
0/
#2150052
1%
#2150058
0%
0)
0*
0+
1-
1.
#2150064
1%
#2150068
0%
1*
1+
0-
0.
1/
#2150074
1%
#2150080
0%
0(
0*
1.
0/
#2150084
1%
#2150090
0%
1,
#2150096
1%
#2150100
0%
1(
1)
0,
#2150106
1%
#2150112
0%
0)
1*
#2150116
1%
#2150122
0%
1)
0+
1,
1-
1/
#2150128
1%
#2150132
0%
0)
0/
#2150138
1%
#2150144
0%
0(
1)
0,
0-
0.
1/
#2150148
1%
#2150154
0%
1(
1-
#2150160
1%
#2150164
0%
0(
0*
0/
#2150170
1%
#2150176
0%
1+
1,
1.
1/
#2150180
1%
#2150186
0%
1(
#2150192
1%
#2150196
0%
0(
0)
1*
0,
#2150202
1%
#2150208
0%
1(
0+
0-
0/
#2150212
1%
#2150218
0%
1,
0.
1/
#2150224
1%
#2150228
0%
1)
1+
1.
#2150234
1%
#2150240
0%
0(
0)
0*
0,
0.
0/
#2150244
1%
#2150250
0%
1,
1.
#2150256
1%
#2150260
0%
1)
1*
0+
0,
0.
#2150266
1%
#2150272
0%
0*
1+
1,
1-
1/
#2150276
1%
#2150282
0%
0+
0,
0-
#2150288
1%
#2150292
0%
1(
1,
1-
1.
#2150298
1%
#2150304
0%
0)
0,
0.
0/
#2150308
1%
#2150314
0%
1*
0-
1/
#2150320
1%
#2150324
0%
0(
0*
1+
1,
1.
#2150330
1%
#2150336
0%
1(
1)
0+
0,
1-
0/
#2150340
1%
#2150346
0%
0(
1+
1,
0-
0.
#2150352
1%
#2150356
0%
1(
0)
0,
1-
1/
#2150362
1%
#2150368
0%
1)
0-
1.
#2150372
1%
#2150378
0%
0(
1*
1,
1-
0.
0/
#2150384
1%
#2150388
0%
1(
0+
0-
1.
1/
#2150394
1%
#2150400
0%
0(
0)
0*
0/
#2150404
1%
#2150410
0%
1)
1*
1+
#2150416
1%
#2150420
0%
0)
1-
0.
1/
#2150426
1%
#2150432
0%
0*
0/
#2150436
1%
#2150442
0%
1(
0+
1.
#2150448
1%
#2150452
0%
0(
1)
0-
1/
#2150458
1%
#2150464
0%
0)
1*
0,
1-
0.
#2150468
1%
#2150474
0%
1(
1+
1,
0-
1.
0/
#2150480
1%
#2150484
0%
1)
0*
1-
0.
1/
#2150490
1%
#2150496
0%
0)
1.
0/
#2150500
1%
#2150506
0%
1)
0+
0.
1/
#2150512
1%
#2150516
0%
0(
0,
1.
0/
#2150522
1%
#2150528
0%
1(
0)
1*
1,
1/
#2150532
1%
#2150538
0%
0*
1+
0,
#2150544
1%
#2150548
0%
1)
1*
0+
0-
0.
#2150554
1%
#2150560
0%
0(
1+
0/
#2150564
1%
#2150570
0%
0*
0+
1-
1.
1/
#2150576
1%
#2150580
0%
0)
1*
0-
0.
#2150586
1%
#2150592
0%
1(
0*
1+
1.
0/
#2150596
1%
#2150602
0%
1)
0+
1-
0.
1/
#2150608
1%
#2150612
0%
0(
1*
1,
1.
0/
#2150618
1%
#2150624
0%
1(
0)
0*
0,
#2150628
1%
#2150634
0%
1)
1*
1/
#2150640
1%
#2150644
0%
0(
0*
0-
#2150650
1%
#2150656
0%
1+
#2150660
1%
#2150666
0%
1(
0)
0+
1,
#2150672
1%
#2150676
0%
1)
1*
0.
#2150682
1%
#2150688
0%
0(
0)
1+
0/
#2150692
1%
#2150698
0%
1)
0,
1-
1.
#2150704
1%
#2150708
0%
1(
0)
0*
0-
0.
1/
#2150714
1%
#2150720
0%
0(
1*
0+
1-
1.
#2150724
1%
#2150730
0%
1)
0/
#2150736
1%
#2150740
0%
1(
0)
0*
1+
0-
0.
1/
#2150746
1%
#2150752
0%
1)
0+
1-
#2150756
1%
#2150762
0%
0(
1*
0-
#2150768
1%
#2150772
0%
0)
1.
#2150778
1%
#2150784
0%
1(
1)
1+
1,
0.
0/
#2150788
1%
#2150794
0%
0(
0)
0+
0,
1-
#2150800
1%
#2150804
0%
0*
1+
0-
#2150810
1%
#2150816
0%
1(
1)
1,
#2150820
1%
#2150826
0%
0(
1*
0+
0,
1.
#2150832
1%
#2150836
0%
1(
0*
1+
0.
1/
#2150842
1%
#2150848
0%
0(
0+
1,
1-
1.
0/
#2150852
1%
#2150858
0%
1(
1*
0,
1/
#2150864
1%
#2150868
0%
0(
1,
0-
0.
0/
#2150874
1%
#2150880
0%
1(
0*
1-
1.
1/
#2150884
1%
#2150890
0%
0(
0)
1+
0-
#2150896
1%
#2150900
0%
1(
1)
0+
0/
#2150906
1%
#2150912
0%
0(
1+
#2150916
1%
#2150922
0%
1(
1*
0+
1-
0.
#2150928
1%
#2150932
0%
0(
0)
0*
0-
1/
#2150938
1%
#2150944
0%
1(
1)
1+
1-
0/
#2150948
1%
#2150954
0%
0(
0)
1*
0,
#2150960
1%
#2150964
0%
1(
1)
0*
0+
1,
0-
#2150970
1%
#2150976
0%
0)
1*
1+
1.
#2150980
1%
#2150986
0%
0,
1/
#2150992
1%
#2150996
0%
1)
0*
1,
1-
#2151002
1%
#2151008
0%
0)
1*
0+
0-
0.
#2151012
1%
#2151018
0%
0(
1)
0*
0,
#2151024
1%
#2151028
0%
1(
1*
1+
1-
1.
#2151034
1%
#2151040
0%
0)
0*
0+
0.
0/
#2151044
1%
#2151050
0%
0(
1*
1+
0-
1/
#2151056
1%
#2151060
0%
0*
1,
0/
#2151066
1%
#2151072
0%
1(
1*
0+
0,
1-
1.
#2151076
1%
#2151082
0%
0(
1)
0*
1+
0-
1/
#2151088
1%
#2151092
0%
1(
1-
0.
#2151098
1%
#2151104
0%
1*
0+
1,
0-
0/
#2151108
1%
#2151114
0%
1+
1-
#2151120
1%
#2151124
0%
0(
0,
0-
1.
#2151130
1%
#2151136
0%
0)
0*
0+
1,
0.
1/
#2151140
1%
#2151146
0%
1*
1-
0/
#2151152
1%
#2151156
0%
1+
0,
1.
#2151162
1%
#2151168
0%
1(
1)
0+
1,
0-
0.
#2151172
1%
#2151178
0%
0)
1+
0,
1-
1.
#2151184
1%
#2151188
0%
0(
1)
0-
1/
#2151194
1%
#2151200
0%
1(
0)
1-
0.
#2151204
1%
#2151210
0%
0(
0+
1,
0-
#2151216
1%
#2151220
0%
1(
1+
1-
1.
0/
#2151226
1%
#2151232
0%
1)
0,
0.
1/
#2151236
1%
#2151242
0%
0)
0*
0+
1.
0/
#2151248
1%
#2151252
0%
0(
1*
1+
1,
0.
1/
#2151258
1%
#2151264
0%
0*
0,
0/
#2151268
1%
#2151274
0%
1(
0+
1,
1.
#2151280
1%
#2151284
0%
0(
1)
1*
1+
0-
1/
#2151290
1%
#2151296
0%
0)
0+
0,
1-
0.
#2151300
1%
#2151306
0%
0*
0-
1.
#2151312
1%
#2151316
0%
1)
1,
1-
0/
#2151322
1%
#2151328
0%
1+
#2151332
1%
#2151338
0%
1(
0+
0,
0.
1/
#2151344
1%
#2151348
0%
1.
0/
#2151354
1%
#2151360
0%
0)
1+
1,
0.
#2151364
1%
#2151370
0%
0,
1.
1/
#2151376
1%
#2151380
0%
0(
1)
0+
1,
0-
#2151386
1%
#2151392
0%
1*
1+
0,
#2151396
1%
#2151402
0%
1(
0)
#2151408
1%
#2151412
0%
0(
0+
1,
0.
#2151418
1%
#2151424
0%
1(
1+
0/
#2151428
1%
#2151434
0%
0(
1)
0+
0,
1-
1.
1/
#2151440
1%
#2151444
0%
1(
0)
0*
1+
0.
0/
#2151450
1%
#2151456
0%
1)
1*
0+
1,
1/
#2151460
1%
#2151466
0%
0*
0,
0/
#2151472
1%
#2151476
0%
0)
0-
#2151482
1%
#2151488
0%
1+
1,
1.
1/
#2151492
1%
#2151498
0%
0(
0+
0,
#2151504
1%
#2151508
0%
1)
1+
1,
0/
#2151514
1%
#2151520
0%
0)
0+
1/
#2151524
1%
#2151530
0%
1(
1)
1+
1-
0.
0/
#2151536
1%
#2151540
0%
0(
0)
1*
0-
#2151546
1%
#2151552
0%
1(
1)
0+
1-
1.
#2151556
1%
#2151562
0%
0(
0)
0*
1+
0,
0.
#2151568
1%
#2151572
0%
1(
1,
1/
#2151578
1%
#2151584
0%
1)
1*
0+
0-
#2151588
1%
#2151594
0%
0)
1.
#2151600
1%
#2151604
0%
0(
1)
0,
0.
#2151610
1%
#2151616
0%
1(
1+
1,
1.
#2151620
1%
#2151626
0%
0(
0*
0+
0,
1-
0.
0/
#2151632
1%
#2151636
0%
0)
1+
1,
0-
1.
1/
#2151642
1%
#2151648
0%
1(
0.
0/
#2151652
1%
#2151658
0%
0(
1)
1/
#2151664
1%
#2151668
0%
0,
#2151674
1%
#2151680
0%
1(
0)
1-
1.
#2151684
1%
#2151690
0%
1)
1*
0+
0.
0/
#2151696
1%
#2151700
0%
1+
0-
#2151706
1%
#2151712
0%
0(
0*
1,
1.
#2151716
1%
#2151722
0%
0)
1*
0+
0,
0.
1/
#2151728
1%
#2151732
0%
1(
1)
0*
1+
1,
1-
0/
#2151738
1%
#2151744
0%
0+
0,
#2151748
1%
#2151754
0%
1,
0-
1.
#2151760
1%
#2151764
0%
0)
1+
#2151770
1%
#2151776
0%
1*
1-
1/
#2151780
1%
#2151786
0%
0(
1)
0*
#2151792
1%
#2151796
0%
1(
0)
0+
0,
0-
#2151802
1%
#2151808
0%
1)
0.
#2151812
1%
#2151818
0%
0(
0)
1,
0/
#2151824
1%
#2151828
0%
1(
0,
1-
1.
#2151834
1%
#2151840
0%
0(
1*
1+
0-
1/
#2151844
1%
#2151850
0%
0*
1-
0.
0/
#2151856
1%
#2151860
0%
1(
1*
0+
1,
0-
1.
#2151866
1%
#2151872
0%
0(
1)
1+
1/
#2151876
1%
#2151882
0%
1(
1-
0.
#2151888
1%
#2151892
0%
0(
0)
0*
0-
0/
#2151898
1%
#2151904
0%
0+
1-
1.
#2151908
1%
#2151914
0%
1)
1+
0,
0-
0.
#2151920
1%
#2151924
0%
0)
1*
0+
1-
1/
#2151930
1%
#2151936
0%
1(
1)
0-
0/
#2151940
1%
#2151946
0%
0*
1+
1,
1-
#2151952
1%
#2151956
0%
0(
0+
0,
0-
1.
#2151962
1%
#2151968
0%
1(
1,
0.
1/
#2151972
1%
#2151978
0%
0)
1-
1.
0/
#2151984
1%
#2151988
0%
1*
0.
#2151994
1%
#2152000
0%
1+
1.
1/
#2152004
1%
#2152010
0%
0/
#2152016
1%
#2152020
0%
1)
0*
0,
0-
0.
1/
#2152026
1%
#2152032
0%
0)
0+
1-
1.
0/
#2152036
1%
#2152042
0%
1)
1*
0.
1/
#2152048
1%
#2152052
0%
0(
0)
0*
1+
1.
0/
#2152058
1%
#2152064
0%
1)
1,
#2152068
1%
#2152074
0%
1*
0+
0,
0.
1/
#2152080
1%
#2152084
0%
1(
0*
#2152090
1%
#2152096
0%
0(
0)
1*
1+
1,
0/
#2152100
1%
#2152106
0%
1(
#2152112
1%
#2152116
0%
0(
0*
0-
1/
#2152122
1%
#2152128
0%
1(
0+
1-
#2152132
1%
#2152138
0%
1)
1*
0-
#2152144
1%
#2152148
0%
0)
0*
1+
0,
1.
0/
#2152154
1%
#2152160
0%
1,
0.
1/
#2152164
1%
#2152170
0%
0(
1)
1*
0+
1-
1.
#2152176
1%
#2152180
0%
0*
1+
0,
#2152186
1%
#2152192
0%
1*
0+
0-
#2152196
1%
#2152202
0%
1(
1+
#2152208
1%
#2152212
0%
0(
0*
0+
1,
0.
0/
#2152218
1%
#2152224
0%
0)
1*
1.
1/
#2152228
1%
#2152234
0%
0*
0,
1-
0/
#2152240
1%
#2152244
0%
1)
1*
1,
1/
#2152250
1%
#2152256
0%
0.
0/
#2152260
1%
#2152266
0%
1(
0*
1+
0,
0-
1.
1/
#2152272
1%
#2152276
0%
0+
1,
1-
0.
0/
#2152282
1%
#2152288
0%
0(
1*
1+
#2152292
1%
#2152298
0%
1(
0)
0+
0-
1/
#2152304
1%
#2152308
0%
0(
0*
1.
#2152314
1%
#2152320
0%
1(
1)
1*
1+
0,
1-
0/
#2152324
1%
#2152330
0%
0(
0)
1,
0-
0.
#2152336
1%
#2152340
0%
0,
1-
#2152346
1%
#2152352
0%
1(
0*
0-
#2152356
1%
#2152362
0%
1)
1*
1,
1.
1/
#2152368
1%
#2152372
0%
0(
0+
0,
#2152378
1%
#2152384
0%
1(
0)
0*
1+
1,
#2152388
1%
#2152394
0%
0(
1)
0+
0.
#2152400
1%
#2152404
0%
1+
1.
#2152410
1%
#2152416
0%
1(
0)
1*
0,
1-
#2152420
1%
#2152426
0%
1)
0*
1,
0-
0.
#2152432
1%
#2152436
0%
0)
1*
0,
0/
#2152442
1%
#2152448
0%
1)
0*
1-
1/
#2152452
1%
#2152458
0%
0)
1*
0+
0-
1.
0/
#2152464
1%
#2152468
0%
1)
1+
1,
1-
0.
1/
#2152474
1%
#2152480
0%
0*
0+
1.
0/
#2152484
1%
#2152490
0%
0(
0)
0.
#2152496
1%
#2152500
0%
1(
1*
0,
#2152506
1%
#2152512
0%
0(
1,
0-
1.
1/
#2152516
1%
#2152522
0%
1(
1)
0*
1+
0.
0/
#2152528
1%
#2152532
0%
1*
#2152538
1%
#2152544
0%
0*
0,
1.
#2152548
1%
#2152554
0%
0(
0)
#2152560
1%
#2152564
0%
1(
1)
1*
0+
1,
1-
0.
#2152570
1%
#2152576
0%
0(
1.
#2152580
1%
#2152586
0%
0-
0.
1/
#2152592
1%
#2152596
0%
0,
1-
#2152602
1%
#2152608
0%
1+
1.
#2152612
1%
#2152618
0%
0*
1,
#2152624
1%
#2152628
0%
0)
1*
0,
0-
#2152634
1%
#2152640
0%
1(
1)
0*
0+
0/
#2152644
1%
#2152650
0%
0)
1*
1,
0.
#2152656
1%
#2152660
0%
0*
1-
1.
1/
#2152666
1%
#2152672
0%
1)
1*
1+
0,
0/
#2152676
1%
#2152682
0%
0)
1,
0-
0.
#2152688
1%
#2152692
0%
0(
0+
1.
#2152698
1%
#2152704
0%
1(
1)
0*
0,
0.
#2152708
1%
#2152714
0%
1*
1+
1,
1-
1.
#2152720
1%
#2152724
0%
0)
0*
0+
0,
0-
#2152730
1%
#2152736
0%
0(
1-
1/
#2152740
1%
#2152746
0%
1,
0.
0/
#2152752
1%
#2152756
0%
1+
0,
0-
1.
#2152762
1%
#2152768
0%
1(
1*
0+
1,
0.
#2152772
1%
#2152778
0%
0(
1)
1-
#2152784
1%
#2152788
0%
1(
0*
1+
0,
0-
1.
1/
#2152794
1%
#2152800
0%
1*
1,
0.
0/
#2152804
1%
#2152810
0%
0+
1-
1/
#2152816
1%
#2152820
0%
0)
1.
0/
#2152826
1%
#2152832
0%
1)
0*
1+
0,
0-
1/
#2152836
1%
#2152842
0%
0(
0)
0+
1,
0/
#2152848
1%
#2152852
0%
1(
1)
1*
#2152858
1%
#2152864
0%
0(
0)
1+
1-
#2152868
1%
#2152874
0%
1)
0.
#2152880
1%
#2152884
0%
1(
0)
0*
0+
0,
1/
#2152890
1%
#2152896
0%
0(
1,
0-
1.
#2152900
1%
#2152906
0%
1+
1-
0/
#2152912
1%
#2152916
0%
1)
1*
0,
0.
#2152922
1%
#2152928
0%
1(
0+
0-
1.
#2152932
1%
#2152938
0%
0(
0*
1+
1,
1/
#2152944
1%
#2152948
0%
1*
0+
1-
0.
#2152954
1%
#2152960
0%
0)
0,
0-
1.
#2152964
1%
#2152970
0%
1(
1)
1+
1,
1-
0.
#2152976
1%
#2152980
0%
0+
0,
0-
#2152986
1%
#2152992
0%
0(
0*
1-
1.
#2152996
1%
#2153002
0%
1(
1*
0-
0.
0/
#2153008
1%
#2153012
0%
0*
1+
1-
#2153018
1%
#2153024
0%
0(
0+
0-
1.
#2153028
1%
#2153034
0%
1(
1*
1+
1,
0.
1/
#2153040
1%
#2153044
0%
0*
0+
1-
1.
0/
#2153050
1%
#2153056
0%
0(
0)
1+
0,
0.
1/
#2153060
1%
#2153066
0%
1*
0+
0/
#2153072
1%
#2153076
0%
1)
1+
1,
1.
#2153082
1%
#2153088
0%
1(
0*
0-
0.
1/
#2153092
1%
#2153098
0%
0(
0)
0+
0,
1-
1.
0/
#2153104
1%
#2153108
0%
1(
1)
1+
#2153114
1%
#2153120
0%
0(
0)
#2153124
1%
#2153130
0%
1(
1)
1*
0.
#2153136
1%
#2153140
0%
0(
1.
#2153146
1%
#2153152
0%
0)
1,
0-
0.
1/
#2153156
1%
#2153162
0%
0,
1-
0/
#2153168
1%
#2153172
0%
1(
0*
1.
#2153178
1%
#2153184
0%
1*
1,
0-
1/
#2153188
1%
#2153194
0%
0(
1)
0,
1-
#2153200
1%
#2153204
0%
1(
0)
0*
1,
0-
#2153210
1%
#2153216
0%
0(
1*
0,
0.
#2153220
1%
#2153226
0%
1)
0*
1,
1.
0/
#2153232
1%
#2153236
0%
1(
0)
1*
0+
0,
1-
1/
#2153242
1%
#2153248
0%
1)
0*
1+
1,
#2153252
1%
#2153258
0%
0,
0-
0.
0/
#2153264
1%
#2153268
0%
0+
#2153274
1%
#2153280
0%
1*
1.
#2153284
1%
#2153290
0%
0)
0*
#2153296
1%
#2153300
0%
0(
1)
1,
1-
1/
#2153306
1%
#2153312
0%
0)
0.
#2153316
1%
#2153322
0%
1(
1*
0,
0-
1.
0/
#2153328
1%
#2153332
0%
0(
1,
1-
0.
1/
#2153338
1%
#2153344
0%
1(
1)
0*
0/
#2153348
1%
#2153354
0%
1*
0-
1/
#2153360
1%
#2153364
0%
1+
0,
1.
0/
#2153370
1%
#2153376
0%
0(
0+
1,
1/
#2153380
1%
#2153386
0%
1(
1+
1-
0.
#2153392
1%
#2153396
0%
0(
0-
0/
#2153402
1%
#2153408
0%
0)
0*
0+
1-
1.
1/
#2153412
1%
#2153418
0%
1+
0,
0-
0.
0/
#2153424
1%
#2153428
0%
1*
0+
1.
#2153434
1%
#2153440
0%
1)
0.
#2153444
1%
#2153450
0%
1(
0*
1+
1,
1-
1/
#2153456
1%
#2153460
0%
0(
0+
0,
0-
1.
0/
#2153466
1%
#2153472
0%
1(
0)
1,
1-
0.
1/
#2153476
1%
#2153482
0%
0(
1+
#2153488
1%
#2153492
0%
1*
0+
0-
1.
#2153498
1%
#2153504
0%
1(
1)
1+
0,
0/
#2153508
1%
#2153514
0%
0(
0*
0+
1-
#2153520
1%
#2153524
0%
1(
0-
0.
1/
#2153530
1%
#2153536
0%
0)
1+
1-
1.
0/
#2153540
1%
#2153546
0%
0+
0.
1/
#2153552
1%
#2153556
0%
0(
1)
1*
1+
1.
#2153562
1%
#2153568
0%
0)
0*
1,
#2153572
1%
#2153578
0%
1*
0,
0-
0/
#2153584
1%
#2153588
0%
1)
0*
0+
#2153594
1%
#2153600
0%
1*
1,
1/
#2153604
1%
#2153610
0%
0)
0*
0.
#2153616
1%
#2153620
0%
1*
1.
#2153626
1%
#2153632
0%
1+
0,
1-
0/
#2153636
1%
#2153642
0%
1(
1)
0*
0+
1,
0-
0.
#2153648
1%
#2153652
0%
0,
1/
#2153658
1%
#2153664
0%
0(
1*
1-
1.
0/
#2153668
1%
#2153674
0%
1(
0)
0*
1/
#2153680
1%
#2153684
0%
0(
1)
1+
#2153690
1%
#2153696
0%
0)
0-
#2153700
1%
#2153706
0%
1(
1)
1*
0/
#2153712
1%
#2153716
0%
0(
0+
1,
0.
#2153722
1%
#2153728
0%
1-
1/
#2153732
1%
#2153738
0%
1+
0,
0-
0/
#2153744
1%
#2153748
0%
1(
0+
1,
1-
1.
1/
#2153754
1%
